C:\Users\Pc Gamer\Desktop\edwin\UMG 2022\Programacion III 9 a 11\SegundaSerie\src\main\java\dto\Numeros.java
C:\Users\Pc Gamer\Desktop\edwin\UMG 2022\Programacion III 9 a 11\SegundaSerie\src\main\java\com\mycompany\segundaserie\SumatoriaNumeros.java
C:\Users\Pc Gamer\Desktop\edwin\UMG 2022\Programacion III 9 a 11\SegundaSerie\src\main\java\com\mycompany\segundaserie\NumeroPromedio.java
